<?xml version="1.0" encoding="UTF-8"?>
<!DOCTYPE svg PUBLIC "-//W3C//DTD SVG 1.1//EN" "http://www.w3.org/Graphics/SVG/1.1/DTD/svg11.dtd">
<!-- Creator: CorelDRAW X7 -->
<svg xmlns="http://www.w3.org/2000/svg" xml:space="preserve" width="58.6198mm" height="46.6502mm" version="1.1" style="shape-rendering:geometricPrecision; text-rendering:geometricPrecision; image-rendering:optimizeQuality; fill-rule:evenodd; clip-rule:evenodd"
viewBox="0 0 1168 929"
 xmlns:xlink="http://www.w3.org/1999/xlink">
 <defs>
  <style type="text/css">
   <![CDATA[
    .fil0 {fill:#FEFEFE}
   ]]>
  </style>
 </defs>
 <g id="Layer_x0020_1">
  <metadata id="CorelCorpID_0Corel-Layer"/>
  <g id="_355804992">
   <path class="fil0" d="M584 188l-417 343c0,0 0,1 0,2 0,1 0,2 0,2l0 348c0,12 4,23 13,32 10,10 20,14 33,14l278 0 0 -278 186 0 0 278 278 0c12,0 23,-4 32,-14 9,-9 14,-20 14,-32l0 -348c0,-2 0,-3 -1,-4l-416 -343z"/>
   <path class="fil0" d="M1160 453l-159 -132 0 -296c0,-6 -2,-12 -7,-16 -4,-5 -9,-7 -16,-7l-139 0c-7,0 -13,2 -17,7 -4,4 -6,10 -6,16l0 142 -177 -148c-16,-13 -34,-19 -55,-19 -21,0 -40,6 -55,19l-521 434c-5,4 -7,9 -8,15 0,7 1,12 5,17l45 54c4,4 9,7 15,8 6,0 12,-1 18,-5l501 -418 501 418c4,3 9,5 15,5l2 0c7,-1 12,-4 16,-8l44 -54c4,-5 6,-10 6,-17 -1,-6 -4,-11 -8,-15z"/>
  </g>
 </g>
</svg>
