<?xml version="1.0" encoding="UTF-8"?>
<!DOCTYPE svg PUBLIC "-//W3C//DTD SVG 1.1//EN" "http://www.w3.org/Graphics/SVG/1.1/DTD/svg11.dtd">
<!-- Creator: CorelDRAW X7 -->
<svg xmlns="http://www.w3.org/2000/svg" xml:space="preserve" width="61.6544mm" height="47.1485mm" version="1.1" style="shape-rendering:geometricPrecision; text-rendering:geometricPrecision; image-rendering:optimizeQuality; fill-rule:evenodd; clip-rule:evenodd"
viewBox="0 0 7947 6077"
 xmlns:xlink="http://www.w3.org/1999/xlink">
 <defs>
  <style type="text/css">
   <![CDATA[
    .fil0 {fill:#FEFEFE}
   ]]>
  </style>
 </defs>
 <g id="Layer_x0020_1">
  <metadata id="CorelCorpID_0Corel-Layer"/>
  <g id="_359938416">
   <path class="fil0" d="M2870 2168c-134,-606 723,-750 827,-210 117,605 -726,672 -827,210zm-1623 0c-137,-601 742,-756 842,-200 105,585 -735,668 -842,200zm3227 -54c-68,-596 809,-639 848,-105 40,555 -790,613 -848,105zm-3654 2159l-223 936c507,-189 1348,-911 1887,-925 927,-25 1908,-6 2840,0 1554,11 1208,-449 1217,-3043 2,-556 32,-815 -365,-1069 -419,-269 -2019,-142 -2652,-142 -558,0 -2399,-71 -2812,34 -918,231 -686,1161 -686,2159 0,438 -30,997 3,1420 32,409 375,589 791,630z"/>
   <path class="fil0" d="M2436 4644c-231,1402 3207,393 4020,845 356,197 729,462 1026,588l-124 -635c743,-377 570,-427 570,-2020 0,-1171 209,-1850 -746,-1773 -209,1897 504,3001 -898,2994 -1268,-6 -2585,-32 -3848,1z"/>
  </g>
 </g>
</svg>
