<?xml version="1.0" encoding="UTF-8"?>
<!DOCTYPE svg PUBLIC "-//W3C//DTD SVG 1.1//EN" "http://www.w3.org/Graphics/SVG/1.1/DTD/svg11.dtd">
<!-- Creator: CorelDRAW X7 -->
<svg xmlns="http://www.w3.org/2000/svg" xml:space="preserve" width="69.4886mm" height="59.5227mm" version="1.1" style="shape-rendering:geometricPrecision; text-rendering:geometricPrecision; image-rendering:optimizeQuality; fill-rule:evenodd; clip-rule:evenodd"
viewBox="0 0 3734 3198"
 xmlns:xlink="http://www.w3.org/1999/xlink">
 <defs>
  <style type="text/css">
   <![CDATA[
    .fil0 {fill:#FEFEFE}
   ]]>
  </style>
 </defs>
 <g id="Layer_x0020_1">
  <metadata id="CorelCorpID_0Corel-Layer"/>
  <g id="_356641912">
   <path class="fil0" d="M2628 2275c47,-35 44,-24 112,-22l-4 -83c-7,-295 -247,-548 -425,-649 -453,-255 -252,71 -845,48 -423,-16 -374,-304 -793,-16 -218,151 -415,468 -375,710 110,-2 152,13 240,45l11 -26c1,-4 7,-23 9,-28 77,-216 230,-135 681,-93 81,8 217,38 270,42 27,1 450,-57 545,-67 232,-22 418,-90 429,176l145 -37z"/>
   <path class="fil0" d="M1444 5c-350,43 -636,358 -576,763 50,332 343,689 731,634 310,-44 598,-409 577,-781 -20,-363 -341,-664 -732,-616z"/>
   <path class="fil0" d="M2730 2378c-473,44 -440,561 -127,652 278,80 490,-182 416,-416 -41,-131 -99,-73 -33,-206l607 -1251c70,-145 190,-301 119,-447l-149 -21c-134,189 -311,607 -419,833 -138,290 -270,568 -414,856z"/>
   <path class="fil0" d="M785 2688c17,303 -301,424 43,452 120,9 533,75 616,41 30,-81 24,-780 3,-873 -148,-34 -478,-56 -650,-71 -80,-6 -106,-21 -122,55 -11,50 0,113 17,148 49,97 85,108 93,248z"/>
   <path class="fil0" d="M1579 3048c-1,201 40,149 229,130 403,-41 628,4 537,-190 -47,-102 -96,-124 -94,-280 3,-241 330,-508 -65,-464l-530 50c-87,14 -77,25 -77,110l0 644z"/>
   <path class="fil0" d="M648 2821c68,-203 -63,-368 -203,-420 -191,-71 -377,56 -425,205 -142,448 500,596 628,215z"/>
   <path class="fil0" d="M2628 2275l123 -8c6,-70 10,-46 -15,-97l4 83c-68,-2 -65,-13 -112,22z"/>
  </g>
 </g>
</svg>
