<?xml version="1.0" encoding="UTF-8"?>
<!DOCTYPE svg PUBLIC "-//W3C//DTD SVG 1.1//EN" "http://www.w3.org/Graphics/SVG/1.1/DTD/svg11.dtd">
<!-- Creator: CorelDRAW X7 -->
<svg xmlns="http://www.w3.org/2000/svg" xml:space="preserve" width="57.5843mm" height="53.887mm" version="1.1" style="shape-rendering:geometricPrecision; text-rendering:geometricPrecision; image-rendering:optimizeQuality; fill-rule:evenodd; clip-rule:evenodd"
viewBox="0 0 1295 1211"
 xmlns:xlink="http://www.w3.org/1999/xlink">
 <defs>
  <style type="text/css">
   <![CDATA[
    .fil0 {fill:#1A4709}
   ]]>
  </style>
 </defs>
 <g id="Layer_x0020_1">
  <metadata id="CorelCorpID_0Corel-Layer"/>
  <g id="_314858856">
   <path class="fil0" d="M328 506c42,-11 78,23 85,55 9,44 -20,78 -55,86 -88,20 -129,-115 -30,-141zm-328 -210l0 652c0,35 12,66 31,81 13,9 26,9 41,16l194 88c51,24 103,46 154,70 17,8 22,13 40,3 45,-26 37,-99 37,-143l0 -962c0,-37 -5,-66 -25,-86 -7,-7 -23,-19 -37,-14 -14,6 -26,12 -39,18l-307 140c-16,7 -22,11 -40,15 -15,4 -26,15 -32,25 -19,29 -17,57 -17,97z"/>
   <path class="fil0" d="M1011 436l-326 0 0 302 326 1 0 121c7,-3 218,-213 248,-242 8,-8 31,-28 36,-36 -4,-7 -132,-130 -141,-139 -11,-11 -133,-133 -143,-138l0 131z"/>
   <path class="fil0" d="M865 1009l-262 1 -1 96c54,3 113,0 167,0 28,0 56,0 85,0 27,0 47,-7 62,-21 37,-35 33,-75 33,-135 0,-26 1,-154 -1,-168l-82 0 -1 227z"/>
   <path class="fil0" d="M602 202l263 0 0 176 84 1c0,-52 0,-104 0,-155 0,-27 0,-44 -11,-67 -8,-18 -20,-32 -36,-41 -22,-12 -38,-11 -66,-11 -26,0 -52,0 -78,0 -50,0 -105,-2 -155,0l-1 97z"/>
  </g>
 </g>
</svg>
